\BOOKMARK [1][-]{section.1}{\376\377\004\046\004\065\004\073\004\114\000\040\004\100\004\060\004\061\004\076\004\102\004\113}{}% 1
\BOOKMARK [1][-]{section.2}{\376\377\004\037\004\100\004\076\004\063\004\100\004\060\004\074\004\074\004\060\000\040\004\100\004\060\004\061\004\076\004\102\004\113}{}% 2
\BOOKMARK [1][-]{section.3}{\376\377\004\042\004\065\004\076\004\100\004\065\004\102\004\070\004\107\004\065\004\101\004\072\004\060\004\117\000\040\004\070\004\075\004\104\004\076\004\100\004\074\004\060\004\106\004\070\004\117}{}% 3
\BOOKMARK [2][-]{subsubsection.3.0.1}{\376\377\004\020\004\074\004\077\004\073\004\070\004\102\004\103\004\064\004\075\004\060\004\117\000\040\004\074\004\076\004\064\004\103\004\073\004\117\004\106\004\070\004\117}{section.3}% 4
\BOOKMARK [3][-]{subsubsection.3.0.2}{\376\377\004\020\004\074\004\077\004\073\004\070\004\102\004\103\004\064\004\075\004\060\004\117\000\040\004\074\004\076\004\064\004\103\004\073\004\117\004\106\004\070\004\117\000\040\004\101\000\040\004\077\004\076\004\064\004\060\004\062\004\073\004\065\004\075\004\070\004\065\004\074\000\040\004\075\004\065\004\101\004\103\004\111\004\065\004\071}{subsubsection.3.0.1}% 5
\BOOKMARK [3][-]{subsubsection.3.0.3}{\376\377\004\036\004\064\004\075\004\076\004\077\004\076\004\073\004\076\004\101\004\075\004\060\004\117\000\040\004\074\004\076\004\064\004\103\004\073\004\117\004\106\004\070\004\117}{subsubsection.3.0.1}% 6
\BOOKMARK [3][-]{subsubsection.3.0.4}{\376\377\004\024\004\065\004\074\004\076\004\064\004\103\004\073\004\117\004\106\004\070\004\117\000\040\004\101\000\040\004\077\004\076\004\074\004\076\004\111\004\114\004\116\000\040\004\101\004\070\004\075\004\105\004\100\004\076\004\075\004\075\004\076\004\063\004\076\000\040\004\064\004\065\004\102\004\065\004\072\004\102\004\070\004\100\004\076\004\062\004\060\004\075\004\070\004\117}{subsubsection.3.0.1}% 7
\BOOKMARK [1][-]{section.4}{\376\377\004\045\004\076\004\064\000\040\004\062\004\113\004\077\004\076\004\073\004\075\004\065\004\075\004\070\004\117\000\040\004\100\004\060\004\061\004\076\004\102\004\113}{}% 8
\BOOKMARK [1][-]{section.5}{\376\377\004\022\004\113\004\062\004\076\004\064\004\113}{}% 9
