\relax 
\providecommand\hyper@newdestlabel[2]{}
\catcode `"\active 
\providecommand\HyperFirstAtBeginDocument{\AtBeginDocument}
\HyperFirstAtBeginDocument{\ifx\hyper@anchor\@undefined
\global\let\oldcontentsline\contentsline
\gdef\contentsline#1#2#3#4{\oldcontentsline{#1}{#2}{#3}}
\global\let\oldnewlabel\newlabel
\gdef\newlabel#1#2{\newlabelxx{#1}#2}
\gdef\newlabelxx#1#2#3#4#5#6{\oldnewlabel{#1}{{#2}{#3}}}
\AtEndDocument{\ifx\hyper@anchor\@undefined
\let\contentsline\oldcontentsline
\let\newlabel\oldnewlabel
\fi}
\fi}
\global\let\hyper@last\relax 
\gdef\HyperFirstAtBeginDocument#1{#1}
\providecommand\HyField@AuxAddToFields[1]{}
\providecommand\HyField@AuxAddToCoFields[2]{}
\bibstyle{ugost2008ls}
\@input{titlepage.aux}
\select@language{russian}
\@writefile{toc}{\select@language{russian}}
\@writefile{lof}{\select@language{russian}}
\@writefile{lot}{\select@language{russian}}
\@input{ToC.aux}
\@writefile{toc}{\contentsline {section}{\numberline {1}\IeC {\CYRC }\IeC {\cyre }\IeC {\cyrl }\IeC {\cyrsftsn } \IeC {\cyrr }\IeC {\cyra }\IeC {\cyrb }\IeC {\cyro }\IeC {\cyrt }\IeC {\cyrery }}{2}{section.1}}
\@writefile{toc}{\contentsline {section}{\numberline {2}\IeC {\CYRP }\IeC {\cyrr }\IeC {\cyro }\IeC {\cyrg }\IeC {\cyrr }\IeC {\cyra }\IeC {\cyrm }\IeC {\cyrm }\IeC {\cyra } \IeC {\cyrr }\IeC {\cyra }\IeC {\cyrb }\IeC {\cyro }\IeC {\cyrt }\IeC {\cyrery }}{2}{section.2}}
\@writefile{toc}{\contentsline {section}{\numberline {3}\IeC {\CYRT }\IeC {\cyre }\IeC {\cyro }\IeC {\cyrr }\IeC {\cyre }\IeC {\cyrt }\IeC {\cyri }\IeC {\cyrch }\IeC {\cyre }\IeC {\cyrs }\IeC {\cyrk }\IeC {\cyra }\IeC {\cyrya } \IeC {\cyri }\IeC {\cyrn }\IeC {\cyrf }\IeC {\cyro }\IeC {\cyrr }\IeC {\cyrm }\IeC {\cyra }\IeC {\cyrc }\IeC {\cyri }\IeC {\cyrya }}{2}{section.3}}
\@writefile{toc}{\contentsline {subsubsection}{\numberline {3.0.1}\IeC {\CYRA }\IeC {\cyrm }\IeC {\cyrp }\IeC {\cyrl }\IeC {\cyri }\IeC {\cyrt }\IeC {\cyru }\IeC {\cyrd }\IeC {\cyrn }\IeC {\cyra }\IeC {\cyrya } \IeC {\cyrm }\IeC {\cyro }\IeC {\cyrd }\IeC {\cyru }\IeC {\cyrl }\IeC {\cyrya }\IeC {\cyrc }\IeC {\cyri }\IeC {\cyrya }}{2}{subsubsection.3.0.1}}
\@writefile{toc}{\contentsline {subsubsection}{\numberline {3.0.2}\IeC {\CYRA }\IeC {\cyrm }\IeC {\cyrp }\IeC {\cyrl }\IeC {\cyri }\IeC {\cyrt }\IeC {\cyru }\IeC {\cyrd }\IeC {\cyrn }\IeC {\cyra }\IeC {\cyrya } \IeC {\cyrm }\IeC {\cyro }\IeC {\cyrd }\IeC {\cyru }\IeC {\cyrl }\IeC {\cyrya }\IeC {\cyrc }\IeC {\cyri }\IeC {\cyrya } \IeC {\cyrs } \IeC {\cyrp }\IeC {\cyro }\IeC {\cyrd }\IeC {\cyra }\IeC {\cyrv }\IeC {\cyrl }\IeC {\cyre }\IeC {\cyrn }\IeC {\cyri }\IeC {\cyre }\IeC {\cyrm } \IeC {\cyrn }\IeC {\cyre }\IeC {\cyrs }\IeC {\cyru }\IeC {\cyrshch }\IeC {\cyre }\IeC {\cyrishrt }}{2}{subsubsection.3.0.2}}
\@writefile{toc}{\contentsline {subsubsection}{\numberline {3.0.3}\IeC {\CYRO }\IeC {\cyrd }\IeC {\cyrn }\IeC {\cyro }\IeC {\cyrp }\IeC {\cyro }\IeC {\cyrl }\IeC {\cyro }\IeC {\cyrs }\IeC {\cyrn }\IeC {\cyra }\IeC {\cyrya } \IeC {\cyrm }\IeC {\cyro }\IeC {\cyrd }\IeC {\cyru }\IeC {\cyrl }\IeC {\cyrya }\IeC {\cyrc }\IeC {\cyri }\IeC {\cyrya }}{2}{subsubsection.3.0.3}}
\@writefile{toc}{\contentsline {subsubsection}{\numberline {3.0.4}\IeC {\CYRD }\IeC {\cyre }\IeC {\cyrm }\IeC {\cyro }\IeC {\cyrd }\IeC {\cyru }\IeC {\cyrl }\IeC {\cyrya }\IeC {\cyrc }\IeC {\cyri }\IeC {\cyrya } \IeC {\cyrs } \IeC {\cyrp }\IeC {\cyro }\IeC {\cyrm }\IeC {\cyro }\IeC {\cyrshch }\IeC {\cyrsftsn }\IeC {\cyryu } \IeC {\cyrs }\IeC {\cyri }\IeC {\cyrn }\IeC {\cyrh }\IeC {\cyrr }\IeC {\cyro }\IeC {\cyrn }\IeC {\cyrn }\IeC {\cyro }\IeC {\cyrg }\IeC {\cyro } \IeC {\cyrd }\IeC {\cyre }\IeC {\cyrt }\IeC {\cyre }\IeC {\cyrk }\IeC {\cyrt }\IeC {\cyri }\IeC {\cyrr }\IeC {\cyro }\IeC {\cyrv }\IeC {\cyra }\IeC {\cyrn }\IeC {\cyri }\IeC {\cyrya }}{3}{subsubsection.3.0.4}}
\@writefile{toc}{\contentsline {section}{\numberline {4}\IeC {\CYRH }\IeC {\cyro }\IeC {\cyrd } \IeC {\cyrv }\IeC {\cyrery }\IeC {\cyrp }\IeC {\cyro }\IeC {\cyrl }\IeC {\cyrn }\IeC {\cyre }\IeC {\cyrn }\IeC {\cyri }\IeC {\cyrya } \IeC {\cyrr }\IeC {\cyra }\IeC {\cyrb }\IeC {\cyro }\IeC {\cyrt }\IeC {\cyrery }}{3}{section.4}}
\newlabel{code:lab4}{{1}{3}{Код программы исследования АМ}{lstlisting.1}{}}
\@writefile{lol}{\contentsline {lstlisting}{\numberline {1}\IeC {\CYRK }\IeC {\cyro }\IeC {\cyrd } \IeC {\cyrp }\IeC {\cyrr }\IeC {\cyro }\IeC {\cyrg }\IeC {\cyrr }\IeC {\cyra }\IeC {\cyrm }\IeC {\cyrm }\IeC {\cyrery } \IeC {\cyri }\IeC {\cyrs }\IeC {\cyrs }\IeC {\cyrl }\IeC {\cyre }\IeC {\cyrd }\IeC {\cyro }\IeC {\cyrv }\IeC {\cyra }\IeC {\cyrn }\IeC {\cyri }\IeC {\cyrya } \IeC {\CYRA }\IeC {\CYRM }}{3}{lstlisting.1}}
\@writefile{lof}{\contentsline {figure}{\numberline {4.1}{\ignorespaces \IeC {\cyro }\IeC {\cyrd }\IeC {\cyrn }\IeC {\cyro }\IeC {\cyrt }\IeC {\cyro }\IeC {\cyrn }\IeC {\cyra }\IeC {\cyrl }\IeC {\cyrsftsn }\IeC {\cyrn }\IeC {\cyrery }\IeC {\cyrishrt } \IeC {\cyrs }\IeC {\cyri }\IeC {\cyrg }\IeC {\cyrn }\IeC {\cyra }\IeC {\cyrl }\relax }}{6}{figure.caption.1}}
\providecommand*\caption@xref[2]{\@setref\relax\@undefined{#1}}
\newlabel{pic:pic_1}{{4.1}{6}{однотональный сигнал\relax }{figure.caption.1}{}}
\@writefile{lof}{\contentsline {figure}{\numberline {4.2}{\ignorespaces \IeC {\CYRA }\IeC {\CYRM }-\IeC {\cyrs }\IeC {\cyri }\IeC {\cyrg }\IeC {\cyrn }\IeC {\cyra }\IeC {\cyrl }, \IeC {\CYRM } = 1\relax }}{7}{figure.caption.2}}
\newlabel{pic:pic_1}{{4.2}{7}{АМ-сигнал, М = 1\relax }{figure.caption.2}{}}
\@writefile{lof}{\contentsline {figure}{\numberline {4.3}{\ignorespaces \IeC {\CYRA }\IeC {\CYRM }-\IeC {\cyrs }\IeC {\cyri }\IeC {\cyrg }\IeC {\cyrn }\IeC {\cyra }\IeC {\cyrl }, \IeC {\CYRM } = 2\relax }}{7}{figure.caption.3}}
\newlabel{pic:pic_1}{{4.3}{7}{АМ-сигнал, М = 2\relax }{figure.caption.3}{}}
\@writefile{lof}{\contentsline {figure}{\numberline {4.4}{\ignorespaces \IeC {\CYRA }\IeC {\CYRM }-\IeC {\cyrs }\IeC {\cyri }\IeC {\cyrg }\IeC {\cyrn }\IeC {\cyra }\IeC {\cyrl }, \IeC {\CYRM } = 0.2\relax }}{8}{figure.caption.4}}
\newlabel{pic:pic_1}{{4.4}{8}{АМ-сигнал, М = 0.2\relax }{figure.caption.4}{}}
\@writefile{lof}{\contentsline {figure}{\numberline {4.5}{\ignorespaces \IeC {\CYRS }\IeC {\cyrp }\IeC {\cyre }\IeC {\cyrk }\IeC {\cyrt }\IeC {\cyrr } \IeC {\CYRA }\IeC {\CYRM }-\IeC {\cyrs }\IeC {\cyri }\IeC {\cyrg }\IeC {\cyrn }\IeC {\cyra }\IeC {\cyrl }\IeC {\cyra }\relax }}{9}{figure.caption.5}}
\newlabel{pic:pic_1}{{4.5}{9}{Спектр АМ-сигнала\relax }{figure.caption.5}{}}
\@writefile{lof}{\contentsline {figure}{\numberline {4.6}{\ignorespaces \IeC {\CYRA }\IeC {\CYRM } \IeC {\cyrs } \IeC {\cyrp }\IeC {\cyro }\IeC {\cyrd }\IeC {\cyra }\IeC {\cyrv }\IeC {\cyrl }\IeC {\cyre }\IeC {\cyrn }\IeC {\cyri }\IeC {\cyre }\IeC {\cyrm } \IeC {\cyrn }\IeC {\cyre }\IeC {\cyrs }\IeC {\cyru }\IeC {\cyrshch }\IeC {\cyre }\IeC {\cyrishrt }\relax }}{10}{figure.caption.6}}
\newlabel{pic:pic_1}{{4.6}{10}{АМ с подавлением несущей\relax }{figure.caption.6}{}}
\@writefile{lof}{\contentsline {figure}{\numberline {4.7}{\ignorespaces \IeC {\CYRS }\IeC {\cyrp }\IeC {\cyre }\IeC {\cyrk }\IeC {\cyrt }\IeC {\cyrr } \IeC {\CYRA }\IeC {\CYRM }-\IeC {\cyrs }\IeC {\cyri }\IeC {\cyrg }\IeC {\cyrn }\IeC {\cyra }\IeC {\cyrl }\IeC {\cyra } \IeC {\cyrs } \IeC {\cyrp }\IeC {\cyro }\IeC {\cyrd }\IeC {\cyra }\IeC {\cyrv }\IeC {\cyrl }\IeC {\cyre }\IeC {\cyrn }\IeC {\cyri }\IeC {\cyre }\IeC {\cyrm } \IeC {\cyrn }\IeC {\cyre }\IeC {\cyrs }\IeC {\cyru }\IeC {\cyrshch }\IeC {\cyre }\IeC {\cyrishrt }\relax }}{11}{figure.caption.7}}
\newlabel{pic:pic_1}{{4.7}{11}{Спектр АМ-сигнала с подавлением несущей\relax }{figure.caption.7}{}}
\@writefile{lof}{\contentsline {figure}{\numberline {4.8}{\ignorespaces \IeC {\CYRO }\IeC {\cyrd }\IeC {\cyrn }\IeC {\cyro }\IeC {\cyrp }\IeC {\cyro }\IeC {\cyrl }\IeC {\cyro }\IeC {\cyrs }\IeC {\cyrn }\IeC {\cyra }\IeC {\cyrya } \IeC {\cyrm }\IeC {\cyro }\IeC {\cyrd }\IeC {\cyru }\IeC {\cyrl }\IeC {\cyrya }\IeC {\cyrc }\IeC {\cyri }\IeC {\cyrya }\relax }}{12}{figure.caption.8}}
\newlabel{pic:pic_1}{{4.8}{12}{Однополосная модуляция\relax }{figure.caption.8}{}}
\@writefile{lof}{\contentsline {figure}{\numberline {4.9}{\ignorespaces \IeC {\CYRS }\IeC {\cyrp }\IeC {\cyre }\IeC {\cyrk }\IeC {\cyrt }\IeC {\cyrr } \IeC {\cyrs }\IeC {\cyri }\IeC {\cyrg }\IeC {\cyrn }\IeC {\cyra }\IeC {\cyrl }\IeC {\cyra } \IeC {\cyrs } \IeC {\cyro }\IeC {\cyrd }\IeC {\cyrn }\IeC {\cyro }\IeC {\cyrp }\IeC {\cyro }\IeC {\cyrl }\IeC {\cyro }\IeC {\cyrs }\IeC {\cyrn }\IeC {\cyro }\IeC {\cyrishrt } \IeC {\cyrm }\IeC {\cyro }\IeC {\cyrd }\IeC {\cyru }\IeC {\cyrl }\IeC {\cyrya }\IeC {\cyrc }\IeC {\cyri }\IeC {\cyre }\IeC {\cyrishrt }\relax }}{12}{figure.caption.9}}
\newlabel{pic:pic_1}{{4.9}{12}{Спектр сигнала с однополосной модуляцией\relax }{figure.caption.9}{}}
\@writefile{lof}{\contentsline {figure}{\numberline {4.10}{\ignorespaces \IeC {\CYRR }\IeC {\cyre }\IeC {\cyrz }\IeC {\cyru }\IeC {\cyrl }\IeC {\cyrsftsn }\IeC {\cyrt }\IeC {\cyra }\IeC {\cyrt } \IeC {\cyrs }\IeC {\cyri }\IeC {\cyrn }\IeC {\cyrh }\IeC {\cyrr }\IeC {\cyro }\IeC {\cyrn }\IeC {\cyrn }\IeC {\cyro }\IeC {\cyrg }\IeC {\cyro } \IeC {\cyrd }\IeC {\cyre }\IeC {\cyrt }\IeC {\cyre }\IeC {\cyrk }\IeC {\cyrt }\IeC {\cyri }\IeC {\cyrr }\IeC {\cyro }\IeC {\cyrv }\IeC {\cyra }\IeC {\cyrn }\IeC {\cyri }\IeC {\cyrya }\relax }}{13}{figure.caption.10}}
\newlabel{pic:pic_1}{{4.10}{13}{Результат синхронного детектирования\relax }{figure.caption.10}{}}
\@writefile{lof}{\contentsline {figure}{\numberline {4.11}{\ignorespaces \IeC {\CYRS }\IeC {\cyrp }\IeC {\cyre }\IeC {\cyrk }\IeC {\cyrt }\IeC {\cyrr } \IeC {\cyrs }\IeC {\cyri }\IeC {\cyrg }\IeC {\cyrn }\IeC {\cyra }\IeC {\cyrl }\IeC {\cyra } \IeC {\cyrp }\IeC {\cyro }\IeC {\cyrs }\IeC {\cyrl }\IeC {\cyre } \IeC {\cyrs }\IeC {\cyri }\IeC {\cyrn }\IeC {\cyrh }\IeC {\cyrr }\IeC {\cyro }\IeC {\cyrn }\IeC {\cyrn }\IeC {\cyro }\IeC {\cyrg }\IeC {\cyro } \IeC {\cyrd }\IeC {\cyre }\IeC {\cyrt }\IeC {\cyre }\IeC {\cyrk }\IeC {\cyrt }\IeC {\cyri }\IeC {\cyrr }\IeC {\cyro }\IeC {\cyrv }\IeC {\cyra }\IeC {\cyrn }\IeC {\cyri }\IeC {\cyrya }\relax }}{14}{figure.caption.11}}
\newlabel{pic:pic_1}{{4.11}{14}{Спектр сигнала после синхронного детектирования\relax }{figure.caption.11}{}}
\@writefile{lof}{\contentsline {figure}{\numberline {4.12}{\ignorespaces \IeC {\CYRA }\IeC {\CYRCH }\IeC {\CYRH } \IeC {\CYRF }\IeC {\CYRN }\IeC {\CYRCH }\relax }}{14}{figure.caption.12}}
\newlabel{pic:pic_1}{{4.12}{14}{АЧХ ФНЧ\relax }{figure.caption.12}{}}
\@writefile{lof}{\contentsline {figure}{\numberline {4.13}{\ignorespaces \IeC {\CYRI }\IeC {\cyrs }\IeC {\cyrh }\IeC {\cyro }\IeC {\cyrd }\IeC {\cyrn }\IeC {\cyrery }\IeC {\cyrishrt } \IeC {\cyrs }\IeC {\cyri }\IeC {\cyrg }\IeC {\cyrn }\IeC {\cyra }\IeC {\cyrl }\relax }}{15}{figure.caption.13}}
\newlabel{pic:pic_1}{{4.13}{15}{Исходный сигнал\relax }{figure.caption.13}{}}
\@writefile{lof}{\contentsline {figure}{\numberline {4.14}{\ignorespaces \IeC {\CYRZ }\IeC {\cyra }\IeC {\cyrv }\IeC {\cyri }\IeC {\cyrs }\IeC {\cyri }\IeC {\cyrm }\IeC {\cyro }\IeC {\cyrs }\IeC {\cyrt }\IeC {\cyrsftsn } \IeC {\CYRK }\IeC {\CYRP }\IeC {\CYRD } \IeC {\cyro }\IeC {\cyrt } \IeC {\cyrg }\IeC {\cyrl }\IeC {\cyru }\IeC {\cyrb }\IeC {\cyri }\IeC {\cyrn }\IeC {\cyrery } \IeC {\cyrm }\IeC {\cyro }\IeC {\cyrd }\IeC {\cyru }\IeC {\cyrl }\IeC {\cyrya }\IeC {\cyrc }\IeC {\cyri }\IeC {\cyri }\relax }}{15}{figure.caption.14}}
\newlabel{pic:pic_1}{{4.14}{15}{Зависимость КПД от глубины модуляции\relax }{figure.caption.14}{}}
\@writefile{toc}{\contentsline {section}{\numberline {5}\IeC {\CYRV }\IeC {\cyrery }\IeC {\cyrv }\IeC {\cyro }\IeC {\cyrd }\IeC {\cyrery }}{16}{section.5}}
\ttl@finishall
